Download data from EurOBIS using the LifeWatch/EMODnet-Biology Web Feature Services • eurobis
…
To see the list of datasets, use:

eurobis_list_datasets()
#> # A tibble: 1,221 × 2
#>    id    name                                                                   
#>    <chr> <chr>                                                                  
#>  1 5685  1507-1997 Paul F. Clark North East Atlantic Crab Atlas                 
#>  2 5688  1778-1998 Ivor Rees North Wales Marine Fauna Ad-hoc sightings shore an…
#>  3 5666  1915-2016 Marine Strategy Framework Directive (MSFD) Collation of inva…
#>  4 1884  2005-Ongoing UK MarLIN Shore Thing timed search results                
#>  5 6430  2009 University of Plymouth Wave Hub, Cornwall towed underwater video …
#>  6 6421  2010 University of Plymouth Guernsey towed underwater video benthic su…
#>  7 6693  2011 University of Plymouth Falmouth towed underwater video maerl and …
#>  8 6691  2012-2013 University of Plymouth Falmouth maerl bed infauna and sedime…
#>  9 5670  2012-ongoing UK Offshore Marine Conservation Zone (MCZ) Survey Data    
#> 10 6692  2012 University of Plymouth Falmouth towed underwater video maerl and …
#> # … with 1,211 more rows
…
See the full list of queriable traits in the exported dataset species_traits:

tibble::as_tibble(species_traits)
#> # A tibble: 32 × 4
#>    category                      group            selection     selectid     
#>    <chr>                         <chr>            <chr>         <chr>        
#>  1 Species group                 Functional group algae         Algae        
#>  2 Species group                 Functional group angiosperms   Angiosperms  
#>  3 Species group                 Functional group benthos       Benthos      
#>  4 Species group                 Functional group birds         Birds        
#>  5 Species group                 Functional group mammals       Mammals      
#>  6 Species group                 Functional group phytoplankton phytoplankton
#>  7 Species group                 Functional group pisces        pisces       
#>  8 Species group                 Functional group reptiles      Reptiles     
#>  9 Species group                 Functional group zooplankton   zooplankton  
#> 10 Species importance to society CITES Annex      I             28_280_0     
#> # … with 22 more rows
…
You can also filter by location, either using the Marine Regions Gazetteer Identifier (MRGID) or passing any polygon as Well Known Text.

eurobis_occurrences_basic(mrgid = 5688, geometry = "POLYGON ((-9.099426 40.33016, -9.099426 40.9788, -8.366089 40.9788, -8.366089 40.33016, -9.099426 40.33016))")

To help drawing the area of your interest, you can use eurobis_map_draw(). You can draw here a polygon interactively:

selected_area <- eurobis_map_draw()
#> POLYGON ((-9.099426 40.33016, -9.099426 40.9788, -8.366089 40.9788, -8.366089 40.33016, -9.099426 40.33016))

eurobis_occurrences_full(geometry = selected_area)

To help choosing the MRGID from Marine Regions, see the list of queriable regions with:

eurobis_list_regions()
#> # A tibble: 303 × 3
#>    id    nameEN                            placetype                           
#>    <chr> <chr>                             <chr>                               
#>  1 21899 Adriatic Sea                      Marine Ecoregion of the World (MEOW)
#>  2 3314  Adriatic Sea                      IHO Sea Area                        
#>  3 3315  Aegean Sea                        IHO Sea Area                        
#>  4 21900 Aegean Sea                        Marine Ecoregion of the World (MEOW)
#>  5 5670  Albanian Exclusive Economic Zone  EEZ                                 
#>  6 25614 Albanian part of the Adriatic Sea Marine Region                       
#>  7 25622 Albanian part of the Ionian Sea   Marine Region                       
#>  8 21897 Alboran Sea                       Marine Ecoregion of the World (MEOW)
#>  9 3324  Alboran Sea                       IHO Sea Area                        
#> 10 8378  Algerian Exclusive Economic Zone  EEZ                                 
#> # … with 293 more rows
…
