…
See the full list of queriable traits in the exported dataset
`species_traits`:

``` r
tibble::as_tibble(species_traits)
#> # A tibble: 32 × 4
#>    category                      group            selection     selectid     
#>    <chr>                         <chr>            <chr>         <chr>        
#>  1 Species group                 Functional group algae         Algae        
#>  2 Species group                 Functional group angiosperms   Angiosperms  
#>  3 Species group                 Functional group benthos       Benthos      
#>  4 Species group                 Functional group birds         Birds        
#>  5 Species group                 Functional group mammals       Mammals      
#>  6 Species group                 Functional group phytoplankton phytoplankton
#>  7 Species group                 Functional group pisces        pisces       
#>  8 Species group                 Functional group reptiles      Reptiles     
#>  9 Species group                 Functional group zooplankton   zooplankton  
#> 10 Species importance to society CITES Annex      I             28_280_0     
#> # … with 22 more rows
```
…
